{
  "css/styles-215534d639.css": "css/styles-215534d639-215534d639.css",
  "css/styles-4125e0f766-4125e0f766-4125e0f766-4125e0f766.css": "css/styles-4125e0f766-4125e0f766-4125e0f766-4125e0f766-4125e0f766.css",
  "css/styles-4125e0f766-4125e0f766-4125e0f766.css": "css/styles-4125e0f766-4125e0f766-4125e0f766-4125e0f766.css",
  "css/styles-4518a082da-4518a082da.css": "css/styles-4518a082da-4518a082da-4518a082da.css",
  "css/styles.css": "css/styles-215534d639.css",
  "js/app-f9f899f3d6-f9f899f3d6-f9f899f3d6-f9f899f3d6.js": "js/app-f9f899f3d6-f9f899f3d6-f9f899f3d6-f9f899f3d6-f9f899f3d6.js",
  "js/app-f9f899f3d6-f9f899f3d6-f9f899f3d6.js": "js/app-f9f899f3d6-f9f899f3d6-f9f899f3d6-f9f899f3d6.js",
  "js/app-f9f899f3d6-f9f899f3d6.js": "js/app-f9f899f3d6-f9f899f3d6-f9f899f3d6.js",
  "js/app-f9f899f3d6.js": "js/app-f9f899f3d6-f9f899f3d6.js",
  "js/app.js": "js/app-f9f899f3d6.js"
}